{
  "prepare_queue": {
    "installed": [],
    "uninstalled": []
  },
  "config_munge": {
    "files": {}
  },
  "installed_plugins": {
    "cordova-plugin-advanced-http": {
      "PACKAGE_NAME": "com.webwed.rivelopermobile"
    },
    "cordova-plugin-camera": {
      "PACKAGE_NAME": "com.webwed.rivelopermobile"
    },
    "cordova-plugin-contacts": {
      "PACKAGE_NAME": "com.webwed.rivelopermobile"
    },
    "cordova-plugin-device": {
      "PACKAGE_NAME": "com.webwed.rivelopermobile"
    },
    "cordova-plugin-facebook4": {
      "APP_ID": "320234815114417",
      "APP_NAME": "webwedmobile",
      "PACKAGE_NAME": "com.webwed.rivelopermobile"
    },
    "cordova-plugin-file-transfer": {
      "PACKAGE_NAME": "com.webwed.rivelopermobile"
    },
    "cordova-plugin-googleplus": {
      "PACKAGE_NAME": "com.webwed.rivelopermobile"
    },
    "cordova-plugin-ionic-webview": {
      "PACKAGE_NAME": "com.webwed.rivelopermobile"
    },
    "cordova-plugin-iosrtc": {
      "PACKAGE_NAME": "com.webwed.rivelopermobile"
    },
    "cordova-plugin-media-capture": {
      "PACKAGE_NAME": "com.webwed.rivelopermobile"
    },
    "cordova-plugin-opentokjs": {
      "PACKAGE_NAME": "com.webwed.rivelopermobile"
    },
    "cordova-plugin-splashscreen": {
      "PACKAGE_NAME": "com.webwed.rivelopermobile"
    },
    "cordova-plugin-statusbar": {
      "PACKAGE_NAME": "com.webwed.rivelopermobile"
    },
    "cordova-plugin-video-editor": {
      "PACKAGE_NAME": "com.webwed.rivelopermobile"
    },
    "cordova-plugin-whitelist": {
      "PACKAGE_NAME": "com.webwed.rivelopermobile"
    },
    "cordova-plugin-x-socialsharing": {
      "PACKAGE_NAME": "com.webwed.rivelopermobile"
    },
    "ionic-plugin-deeplinks": {
      "URL_SCHEME": "webwedmobile",
      "DEEPLINK_SCHEME": "https",
      "DEEPLINK_HOST": "webwedmobile.com",
      "ANDROID_PATH_PREFIX": "/",
      "ANDROID_2_PATH_PREFIX": "/",
      "ANDROID_3_PATH_PREFIX": "/",
      "ANDROID_4_PATH_PREFIX": "/",
      "ANDROID_5_PATH_PREFIX": "/",
      "DEEPLINK_2_SCHEME": " ",
      "DEEPLINK_2_HOST": " ",
      "DEEPLINK_3_SCHEME": " ",
      "DEEPLINK_3_HOST": " ",
      "DEEPLINK_4_SCHEME": " ",
      "DEEPLINK_4_HOST": " ",
      "DEEPLINK_5_SCHEME": " ",
      "DEEPLINK_5_HOST": " ",
      "PACKAGE_NAME": "com.webwed.rivelopermobile"
    },
    "ionic-plugin-keyboard": {
      "PACKAGE_NAME": "com.webwed.rivelopermobile"
    }
  },
  "dependent_plugins": {
    "cordova-plugin-compat": {
      "PACKAGE_NAME": "com.webwed.rivelopermobile"
    },
    "cordova-plugin-file": {
      "PACKAGE_NAME": "com.webwed.rivelopermobile"
    },
    "cordova-plugin-crosswalk-webview": {
      "XWALK_VERSION": "23+",
      "XWALK_LITEVERSION": "xwalk_core_library_canary:17+",
      "XWALK_COMMANDLINE": "--disable-pull-to-refresh-effect",
      "XWALK_MODE": "embedded",
      "XWALK_MULTIPLEAPK": "true",
      "PACKAGE_NAME": "com.webwed.rivelopermobile"
    },
    "es6-promise-plugin": {
      "PACKAGE_NAME": "com.webwed.rivelopermobile"
    }
  }
}