{
  "prepare_queue": {
    "installed": [],
    "uninstalled": []
  },
  "config_munge": {
    "files": {}
  },
  "installed_plugins": {
    "cordova-plugin-advanced-http": {
      "PACKAGE_NAME": "com.webwed.rivelopermobile"
    },
    "cordova-plugin-camera": {
      "CAMERA_USAGE_DESCRIPTION": " ",
      "PHOTOLIBRARY_USAGE_DESCRIPTION": " ",
      "PACKAGE_NAME": "com.webwed.rivelopermobile"
    },
    "cordova-plugin-contacts": {
      "CONTACTS_USAGE_DESCRIPTION": " ",
      "PACKAGE_NAME": "com.webwed.rivelopermobile"
    },
    "cordova-plugin-device": {
      "PACKAGE_NAME": "com.webwed.rivelopermobile"
    },
    "cordova-plugin-email-composer": {
      "PACKAGE_NAME": "com.webwed.rivelopermobile"
    },
    "cordova-plugin-facebook4": {
      "APP_ID": "320234815114417",
      "APP_NAME": "webwedmobile",
      "PACKAGE_NAME": "com.webwed.rivelopermobile"
    },
    "cordova-plugin-file-transfer": {
      "PACKAGE_NAME": "com.webwed.rivelopermobile"
    },
    "cordova-plugin-googleplus": {
      "REVERSED_CLIENT_ID": "com.googleusercontent.apps.328542486655-gsrlgb33mg8412demtabad03iuflf49t",
      "PACKAGE_NAME": "com.webwed.rivelopermobile"
    },
    "cordova-plugin-ionic-webview": {
      "PACKAGE_NAME": "com.webwed.rivelopermobile"
    },
    "cordova-plugin-media-capture": {
      "CAMERA_USAGE_DESCRIPTION": " ",
      "MICROPHONE_USAGE_DESCRIPTION": " ",
      "PHOTOLIBRARY_USAGE_DESCRIPTION": " ",
      "PACKAGE_NAME": "com.webwed.rivelopermobile"
    },
    "cordova-plugin-splashscreen": {
      "PACKAGE_NAME": "com.webwed.rivelopermobile"
    },
    "cordova-plugin-statusbar": {
      "PACKAGE_NAME": "com.webwed.rivelopermobile"
    },
    "cordova-plugin-video-editor": {
      "PACKAGE_NAME": "com.webwed.rivelopermobile"
    },
    "cordova-plugin-whitelist": {
      "PACKAGE_NAME": "com.webwed.rivelopermobile"
    },
    "cordova-plugin-x-socialsharing": {
      "PACKAGE_NAME": "com.webwed.rivelopermobile"
    },
    "ionic-plugin-deeplinks": {
      "URL_SCHEME": "webwedmobile",
      "DEEPLINK_SCHEME": "https",
      "DEEPLINK_HOST": "webwedmobile.com",
      "PACKAGE_NAME": "com.webwed.rivelopermobile"
    },
    "ionic-plugin-keyboard": {
      "PACKAGE_NAME": "com.webwed.rivelopermobile"
    }
  },
  "dependent_plugins": {
    "cordova-plugin-compat": {
      "PACKAGE_NAME": "com.webwed.rivelopermobile"
    },
    "cordova-plugin-file": {
      "PACKAGE_NAME": "com.webwed.rivelopermobile"
    },
    "es6-promise-plugin": {
      "PACKAGE_NAME": "com.webwed.rivelopermobile"
    }
  }
}